﻿sg_uf,nm_municipio,sq_eleicao_divulga,pc_votos_validos,qt_votos_nom_validos,qt_votos_concorrentes
AC,CRUZEIRO DO SUL,2040602022,0.7664,31936,41669
AC,RIO BRANCO,2040602022,0.7251,142090,195963
AL,ÁGUA BRANCA,2040602022,0.0965,1004,10404
AL,ATALAIA,2040602022,0.3612,7544,20884
AL,BARRA DE SÃO MIGUEL,2040602022,0.5154,2871,5570
AL,BATALHA,2040602022,0.3181,2982,9375
AL,BELÉM,2040602022,0.2691,886,3292
AL,CAMPESTRE,2040602022,0.2878,1089,3784
AL,CAMPO ALEGRE,2040602022,0.3436,6012,17498
AL,CAMPO GRANDE,2040602022,0.1917,1197,6245
AL,CAPELA,2040602022,0.4026,3523,8751
AL,JUNDIÁ,2040602022,0.3651,1010,2766
AL,MARAVILHA,2040602022,0.2059,1122,5448
AL,OURO BRANCO,2040602022,0.208,1416,6809
AL,PALESTINA,2040602022,0.2185,658,3012
AL,PILAR,2040602022,0.4434,8763,19765
AL,PIRANHAS,2040602022,0.1516,1990,13124
AL,SÃO SEBASTIÃO,2040602022,0.2518,4612,18313
AL,VIÇOSA,2040602022,0.3494,4960,14197
AM,HUMAITÁ,2040602022,0.4685,10935,23341
AM,ITAPIRANGA,2040602022,0.4098,2457,5995
AM,JAPURÁ,2040602022,0.3887,1128,2902
AM,TABATINGA,2040602022,0.3307,8582,25950
AP,SANTANA,2040602022,0.5611,35397,63090
BA,BARRO ALTO,2040602022,0.1773,1499,8456
BA,BELMONTE,2040602022,0.2971,3247,10928
BA,BONITO,2040602022,0.1692,1572,9290
BA,CANÁPOLIS,2040602022,0.1839,1214,6603
BA,CANARANA,2040602022,0.1948,3010,15455
BA,CANDEIAS,2040602022,0.1774,8957,50504
BA,CONDE,2040602022,0.2065,2798,13551
BA,ENTRE RIOS,2040602022,0.2054,4573,22269
BA,FÁTIMA,2040602022,0.141,1673,11863
BA,FILADÉLFIA,2040602022,0.2388,2690,11264
BA,ITAMBÉ,2040602022,0.2868,3951,13775
BA,JABORANDI,2040602022,0.2328,1589,6825
BA,JANDAÍRA,2040602022,0.1702,1039,6105
BA,JUSSARA,2040602022,0.0988,1012,10242
BA,MILAGRES,2040602022,0.2473,1663,6725
BA,MUNDO NOVO,2040602022,0.2032,2216,10907
BA,NAZARÉ,2040602022,0.2254,3818,16942
BA,NOVA FÁTIMA,2040602022,0.2403,1383,5755
BA,NOVO HORIZONTE,2040602022,0.209,1506,7207
BA,PLANALTO,2040602022,0.2826,4166,14742
BA,PRESIDENTE DUTRA,2040602022,0.116,1102,9500
BA,QUEIMADAS,2040602022,0.2509,3777,15056
BA,RIACHO DE SANTANA,2040602022,0.1403,2542,18112
BA,RUY BARBOSA,2040602022,0.232,3992,17208
BA,SANTA BÁRBARA,2040602022,0.1971,2995,15192
BA,SANTA INÊS,2040602022,0.1538,896,5826
BA,SANTA LUZIA,2040602022,0.3126,1846,5905
BA,SANTA TEREZINHA,2040602022,0.1866,1212,6494
BA,SANTANA,2040602022,0.2589,4121,15918
BA,SÃO DOMINGOS,2040602022,0.2635,1627,6174
BA,SÃO GABRIEL,2040602022,0.1252,1582,12633
BA,SERRINHA,2040602022,0.2407,11608,48224
BA,SOBRADINHO,2040602022,0.2318,3519,15179
BA,TAPEROÁ,2040602022,0.229,2351,10267
BA,TEODORO SAMPAIO,2040602022,0.1053,545,5176
BA,TERRA NOVA,2040602022,0.1673,1285,7683
BA,VALENÇA,2040602022,0.3193,15291,47890
BA,VERA CRUZ,2040602022,0.2223,5672,25514
CE,AURORA,2040602022,0.1558,2359,15146
CE,CASCAVEL,2040602022,0.3146,14643,46544
CE,CEDRO,2040602022,0.1622,2504,15442
CE,HIDROLÂNDIA,2040602022,0.2109,2500,11853
CE,IGUATU,2040602022,0.1836,10351,56364
CE,INDEPENDÊNCIA,2040602022,0.2487,3938,15835
CE,IPUEIRAS,2040602022,0.2145,4876,22734
CE,IRACEMA,2040602022,0.1723,1542,8950
CE,JARDIM,2040602022,0.1475,2444,16570
CE,MILAGRES,2040602022,0.117,1993,17038
CE,MORRINHOS,2040602022,0.4787,6594,13774
CE,MULUNGU,2040602022,0.229,1593,6956
CE,NOVA OLINDA,2040602022,0.1697,1660,9780
CE,PACATUBA,2040602022,0.3692,15994,43321
CE,PEDRA BRANCA,2040602022,0.1234,3081,24965
CE,REDENÇÃO,2040602022,0.2739,5110,18655
CE,SÃO GONÇALO DO AMARANTE,2040602022,0.349,13070,37446
ES,ANCHIETA,2040602022,0.5868,10535,17954
ES,BOA ESPERANÇA,2040602022,0.4702,3835,8156
ES,PRESIDENTE KENNEDY,2040602022,0.6347,6043,9521
ES,VIANA,2040602022,0.5515,22027,39937
GO,BARRO ALTO,2040602022,0.5396,3833,7104
GO,CACHOEIRA DOURADA,2040602022,0.4596,2474,5383
GO,DAVINÓPOLIS,2040602022,0.3886,1005,2586
GO,ESTRELA DO NORTE,2040602022,0.4901,1117,2279
GO,FORMOSO,2040602022,0.4718,1607,3406
GO,HIDROLÂNDIA,2040602022,0.5603,7959,14206
GO,ITAJÁ,2040602022,0.606,1678,2769
GO,JUSSARA,2040602022,0.5968,6561,10994
GO,LAGOA SANTA,2040602022,0.6029,665,1103
GO,MORRINHOS,2040602022,0.5757,15783,27415
GO,MUNDO NOVO,2040602022,0.5056,1838,3635
GO,NOVA AURORA,2040602022,0.4428,774,1748
GO,NOVA VENEZA,2040602022,0.571,3552,6221
GO,PIRANHAS,2040602022,0.5522,3985,7216
GO,SANTA ISABEL,2040602022,0.5898,1681,2850
GO,SÃO DOMINGOS,2040602022,0.3405,1699,4990
GO,SÃO SIMÃO,2040602022,0.4469,4542,10164
GO,TRINDADE,2040602022,0.5705,39215,68734
MA,ARAGUANÃ,2040602022,0.1798,1000,5562
MA,BOM JARDIM,2040602022,0.2354,4489,19070
MA,CEDRAL,2040602022,0.1839,1149,6249
MA,COLINAS,2040602022,0.196,4099,20912
MA,DAVINÓPOLIS,2040602022,0.3622,3158,8718
MA,JATOBÁ,2040602022,0.1743,864,4958
MA,MIRADOR,2040602022,0.1721,2050,11909
MA,PRESIDENTE DUTRA,2040602022,0.3228,7653,23707
MA,PRESIDENTE JUSCELINO,2040602022,0.164,1149,7008
MA,PRESIDENTE MÉDICI,2040602022,0.1787,697,3900
MA,RIACHÃO,2040602022,0.2779,3413,12280
MA,SANTA HELENA,2040602022,0.2343,3853,16445
MA,SANTA INÊS,2040602022,0.3371,15347,45523
MA,SANTA LUZIA,2040602022,0.225,7292,32416
MA,SANTA RITA,2040602022,0.1923,3534,18378
MA,SÃO BENTO,2040602022,0.1913,3770,19709
MA,SÃO JOÃO BATISTA,2040602022,0.1259,1653,13128
MA,SÃO JOÃO DO PARAÍSO,2040602022,0.3709,2420,6524
MA,SÍTIO NOVO,2040602022,0.3252,3605,11086
MA,VIANA,2040602022,0.2709,7598,28043
MG,ÁGUA BOA,2040602022,0.3684,2796,7589
MG,ANTÔNIO CARLOS,2040602022,0.3444,2582,7498
MG,BOA ESPERANÇA,2040602022,0.539,12893,23922
MG,BOM SUCESSO,2040602022,0.4554,5096,11191
MG,BONFIM,2040602022,0.4327,2297,5308
MG,BURITIS,2040602022,0.5453,7637,14004
MG,CACHOEIRA DOURADA,2040602022,0.3273,597,1824
MG,CAMPESTRE,2040602022,0.6209,8049,12963
MG,CANÁPOLIS,2040602022,0.3906,2591,6633
MG,CANDEIAS,2040602022,0.5284,4819,9120
MG,CANTAGALO,2040602022,0.2721,695,2554
MG,FORMOSO,2040602022,0.3904,1706,4370
MG,GUARACIABA,2040602022,0.2864,1771,6183
MG,INDIANÓPOLIS,2040602022,0.4565,1756,3847
MG,ITAPEVA,2040602022,0.6195,4029,6504
MG,JACUTINGA,2040602022,0.7229,10464,14475
MG,LAGOA GRANDE,2040602022,0.4394,2519,5733
MG,LAGOA SANTA,2040602022,0.6152,23835,38741
MG,LARANJAL,2040602022,0.4981,2213,4443
MG,MESQUITA,2040602022,0.4701,1790,3808
MG,NOVA UNIÃO,2040602022,0.4167,1741,4178
MG,OURO BRANCO,2040602022,0.4787,11885,24826
MG,PRATA,2040602022,0.4671,7615,16302
MG,PRESIDENTE BERNARDES,2040602022,0.2984,1212,4062
MG,PRESIDENTE JUSCELINO,2040602022,0.3258,865,2655
MG,RIACHINHO,2040602022,0.3612,1506,4169
MG,SANTA BÁRBARA,2040602022,0.3716,6894,18552
MG,SANTA LUZIA,2040602022,0.5176,68438,132231
MG,SÃO FRANCISCO,2040602022,0.3168,8931,28190
MG,SÃO FRANCISCO DE PAULA,2040602022,0.3761,1769,4704
MG,SÃO JOÃO DO PARAÍSO,2040602022,0.4643,5568,11991
MG,SÃO JOSÉ DO DIVINO,2040602022,0.5036,1181,2345
MG,TAPIRA,2040602022,0.7267,2587,3560
MG,TAPIRAÍ,2040602022,0.4811,712,1480
MG,TOLEDO,2040602022,0.6123,2980,4867
MG,TURMALINA,2040602022,0.2924,3481,11904
MG,VARGEM BONITA,2040602022,0.5999,1147,1912
MG,VIÇOSA,2040602022,0.3253,15366,47237
MG,WENCESLAU BRAZ,2040602022,0.5658,1165,2059
MS,BANDEIRANTES,2040602022,0.5408,2415,4466
MS,BONITO,2040602022,0.6021,7855,13046
MS,CAMPO GRANDE,2040602022,0.6265,313906,501015
MS,CARACOL,2040602022,0.5491,1806,3289
MS,DOURADINA,2040602022,0.6035,2362,3914
MS,ELDORADO,2040602022,0.619,3801,6141
MS,JARDIM,2040602022,0.6281,8058,12830
MS,MUNDO NOVO,2040602022,0.6275,6445,10271
MS,RIO NEGRO,2040602022,0.5367,1552,2892
MT,ÁGUA BOA,2040602022,0.7842,11324,14441
MT,CANARANA,2040602022,0.7778,9318,11980
MT,GENERAL CARNEIRO,2040602022,0.5041,1526,3027
MT,NOVA OLÍMPIA,2040602022,0.4817,4456,9251
MT,NOVO SANTO ANTÔNIO,2040602022,0.607,743,1224
MT,PEDRA PRETA,2040602022,0.5617,5963,10616
MT,RIO BRANCO,2040602022,0.5723,1670,2918
MT,SANTA TEREZINHA,2040602022,0.4455,1480,3322
MT,VÁRZEA GRANDE,2040602022,0.5875,84427,143695
PA,BELÉM,2040602022,0.4972,427051,858909
PA,BOM JESUS DO TOCANTINS,2040602022,0.4511,3763,8342
PA,BONITO,2040602022,0.291,2761,9488
PA,CAPANEMA,2040602022,0.3995,16458,41201
PA,FARO,2040602022,0.1998,942,4714
PA,MONTE ALEGRE,2040602022,0.5157,19420,37660
PA,PAU D'ARCO,2040602022,0.546,2849,5218
PA,PRIMAVERA,2040602022,0.2468,1935,7840
PA,REDENÇÃO,2040602022,0.6924,32790,47359
PA,SAPUCAIA,2040602022,0.4887,1691,3460
PB,ÁGUA BRANCA,2040602022,0.132,759,5751
PB,ALAGOINHA,2040602022,0.1782,1563,8773
PB,AMPARO,2040602022,0.1166,235,2016
PB,APARECIDA,2040602022,0.2294,1249,5445
PB,ARARUNA,2040602022,0.2534,2480,9785
PB,ASSUNÇÃO,2040602022,0.2233,680,3045
PB,BARAÚNA,2040602022,0.1747,597,3418
PB,BARRA DE SÃO MIGUEL,2040602022,0.2683,1253,4671
PB,BELÉM,2040602022,0.2862,2810,9817
PB,BOA VISTA,2040602022,0.3123,1523,4877
PB,BOM JESUS,2040602022,0.1113,268,2408
PB,BOM SUCESSO,2040602022,0.1183,419,3543
PB,BORBOREMA,2040602022,0.203,673,3316
PB,CAIÇARA,2040602022,0.2825,1282,4538
PB,CARAÚBAS,2040602022,0.1995,679,3404
PB,CONDADO,2040602022,0.1776,737,4150
PB,CONDE,2040602022,0.3819,6782,17757
PB,ITABAIANA,2040602022,0.3679,5456,14831
PB,ITAPORANGA,2040602022,0.2268,2846,12549
PB,MASSARANDUBA,2040602022,0.2747,2454,8934
PB,MULUNGU,2040602022,0.2325,1608,6917
PB,NOVA OLINDA,2040602022,0.1538,557,3621
PB,PASSAGEM,2040602022,0.2224,436,1960
PB,PAULISTA,2040602022,0.2597,1979,7621
PB,PEDRA BRANCA,2040602022,0.2369,649,2739
PB,PILAR,2040602022,0.2802,2197,7842
PB,PILÕES,2040602022,0.2151,1076,5002
PB,PRATA,2040602022,0.2612,812,3109
PB,QUEIMADAS,2040602022,0.2783,7648,27484
PB,QUIXABA,2040602022,0.2774,506,1824
PB,RIACHÃO,2040602022,0.2007,489,2436
PB,SALGADINHO,2040602022,0.1991,454,2280
PB,SANTA CECÍLIA,2040602022,0.2358,1302,5522
PB,SANTA CRUZ,2040602022,0.154,683,4435
PB,SANTA HELENA,2040602022,0.1151,511,4439
PB,SANTA INÊS,2040602022,0.0826,230,2784
PB,SANTA LUZIA,2040602022,0.2817,2618,9295
PB,SANTA RITA,2040602022,0.4197,31965,76160
PB,SANTO ANDRÉ,2040602022,0.1767,390,2207
PB,SÃO BENTO,2040602022,0.4448,9122,20510
PB,SÃO DOMINGOS,2040602022,0.2269,539,2376
PB,SÃO FRANCISCO,2040602022,0.2153,705,3275
PB,SERTÃOZINHO,2040602022,0.2151,721,3352
PB,SOLEDADE,2040602022,0.2793,2415,8647
PB,TAPEROÁ,2040602022,0.1984,1560,7863
PB,TAVARES,2040602022,0.1141,929,8145
PB,TRIUNFO,2040602022,0.1193,664,5564
PB,VÁRZEA,2040602022,0.1615,340,2105
PE,ALAGOINHA,2040602022,0.1198,1138,9502
PE,BOM JARDIM,2040602022,0.2338,5280,22585
PE,BONITO,2040602022,0.328,7600,23172
PE,BREJINHO,2040602022,0.1488,817,5489
PE,BUENOS AIRES,2040602022,0.2283,1999,8755
PE,CACHOEIRINHA,2040602022,0.2419,2911,12034
PE,CEDRO,2040602022,0.1183,799,6755
PE,CONDADO,2040602022,0.2902,4414,15209
PE,FEIRA NOVA,2040602022,0.3456,4785,13847
PE,FLORESTA,2040602022,0.1426,2519,17670
PE,INAJÁ,2040602022,0.097,1021,10523
PE,ITAMBÉ,2040602022,0.2794,5122,18331
PE,JATOBÁ,2040602022,0.1454,1156,7951
PE,JUREMA,2040602022,0.2086,1788,8571
PE,LAGOA GRANDE,2040602022,0.1967,3006,15283
PE,PARNAMIRIM,2040602022,0.0945,1301,13769
PE,PAULISTA,2040602022,0.4172,77951,186826
PE,PETROLÂNDIA,2040602022,0.1892,3493,18458
PE,PRIMAVERA,2040602022,0.2786,2285,8203
PE,QUIXABA,2040602022,0.0979,471,4811
PE,SALGADINHO,2040602022,0.23,1171,5092
PE,SANTA CRUZ,2040602022,0.1196,1174,9819
PE,SANTA FILOMENA,2040602022,0.1204,1099,9131
PE,SANTA TEREZINHA,2040602022,0.1613,970,6012
PE,SÃO JOÃO,2040602022,0.1379,1872,13578
PE,TERRA NOVA,2040602022,0.0768,509,6631
PE,TRINDADE,2040602022,0.2477,4083,16486
PE,TRIUNFO,2040602022,0.1562,1398,8950
PI,ÁGUA BRANCA,2040602022,0.281,3351,11927
PI,BATALHA,2040602022,0.2369,3707,15646
PI,BOCAINA,2040602022,0.2217,942,4249
PI,BOM JESUS,2040602022,0.3046,4623,15177
PI,CARACOL,2040602022,0.1314,831,6324
PI,ESPERANTINA,2040602022,0.2625,6006,22882
PI,JUREMA,2040602022,0.1192,445,3732
PI,NOVA SANTA RITA,2040602022,0.0797,254,3188
PI,NOVO SANTO ANTÔNIO,2040602022,0.1211,414,3419
PI,PORTO,2040602022,0.2365,1527,6457
PI,SANTA FILOMENA,2040602022,0.2614,1036,3963
PI,SÃO JOSÉ DO DIVINO,2040602022,0.1557,610,3918
PI,VÁRZEA GRANDE,2040602022,0.1774,500,2819
PR,ALTO PARAÍSO,2040602022,0.5875,1293,2201
PR,ARARUNA,2040602022,0.5972,5252,8795
PR,ATALAIA,2040602022,0.5991,1744,2911
PR,BANDEIRANTES,2040602022,0.7113,13737,19312
PR,BARRACÃO,2040602022,0.5499,3310,6019
PR,BOA ESPERANÇA,2040602022,0.7181,2237,3115
PR,BOM SUCESSO,2040602022,0.4587,1906,4155
PR,CAFELÂNDIA,2040602022,0.6726,7165,10653
PR,CANTAGALO,2040602022,0.4265,2937,6886
PR,CAPANEMA,2040602022,0.5231,6462,12353
PR,CASCAVEL,2040602022,0.669,125392,187441
PR,CATANDUVAS,2040602022,0.5718,3114,5446
PR,COLOMBO,2040602022,0.6116,75459,123372
PR,COLORADO,2040602022,0.5379,7829,14554
PR,CRUZEIRO DO SUL,2040602022,0.422,1345,3187
PR,DOURADINA,2040602022,0.6531,3536,5414
PR,FLORESTA,2040602022,0.6317,3531,5590
PR,GENERAL CARNEIRO,2040602022,0.4732,3101,6553
PR,GUAÍRA,2040602022,0.6895,12496,18123
PR,GUARACI,2040602022,0.6222,2139,3438
PR,IGUATU,2040602022,0.4731,775,1638
PR,INAJÁ,2040602022,0.3994,738,1848
PR,INDIANÓPOLIS,2040602022,0.6241,1878,3009
PR,IRATI,2040602022,0.6091,22388,36753
PR,ITAMBÉ,2040602022,0.5948,2434,4092
PR,JAPURÁ,2040602022,0.6974,4057,5817
PR,JUSSARA,2040602022,0.5969,2615,4381
PR,LARANJAL,2040602022,0.3379,1187,3513
PR,MIRADOR,2040602022,0.3709,596,1607
PR,NOVA AURORA,2040602022,0.6496,5304,8165
PR,NOVA FÁTIMA,2040602022,0.5574,2592,4650
PR,NOVA OLÍMPIA,2040602022,0.6346,2470,3892
PR,PALMAS,2040602022,0.4637,11024,23776
PR,PALMEIRA,2040602022,0.6853,14919,21771
PR,PALMITAL,2040602022,0.4551,3808,8368
PR,PINHÃO,2040602022,0.3955,7026,17767
PR,PITANGUEIRAS,2040602022,0.6363,1312,2062
PR,PLANALTO,2040602022,0.4876,4107,8423
PR,RIO NEGRO,2040602022,0.7349,14050,19119
PR,SANTA HELENA,2040602022,0.6139,10309,16792
PR,SANTA INÊS,2040602022,0.444,618,1392
PR,SANTA LÚCIA,2040602022,0.5545,1429,2577
PR,SÃO JOÃO,2040602022,0.572,4240,7412
PR,SÃO TOMÉ,2040602022,0.6358,2317,3644
PR,SARANDI,2040602022,0.5656,29538,52223
PR,TAPEJARA,2040602022,0.6107,5738,9396
PR,TAPIRA,2040602022,0.5517,2026,3672
PR,TERRA ROXA,2040602022,0.7021,7636,10876
PR,TOLEDO,2040602022,0.6876,58445,84993
PR,TURVO,2040602022,0.4132,3815,9233
PR,WENCESLAU BRAZ,2040602022,0.64,7098,11090
RJ,BOM JARDIM,2040602022,0.5668,9485,16734
RJ,CANTAGALO,2040602022,0.5339,6430,12043
RJ,MESQUITA,2040602022,0.6167,63809,103472
RJ,NATIVIDADE,2040602022,0.5159,4912,9521
RJ,RIO CLARO,2040602022,0.4865,5673,11662
RJ,SAPUCAIA,2040602022,0.5681,7144,12576
RJ,VALENÇA,2040602022,0.4264,17591,41252
RN,AREIA BRANCA,2040602022,0.3157,5198,16463
RN,BARAÚNA,2040602022,0.3088,5181,16777
RN,BARCELONA,2040602022,0.3836,1376,3587
RN,BOM JESUS,2040602022,0.3559,2463,6921
RN,BREJINHO,2040602022,0.2946,2304,7821
RN,CAMPO GRANDE,2040602022,0.2811,1871,6655
RN,CARAÚBAS,2040602022,0.2093,3129,14952
RN,ITAJÁ,2040602022,0.2718,1379,5073
RN,JANDAÍRA,2040602022,0.2744,1236,4505
RN,JUNDIÁ,2040602022,0.3183,1016,3192
RN,MONTE ALEGRE,2040602022,0.364,4977,13674
RN,OURO BRANCO,2040602022,0.2559,895,3498
RN,PARNAMIRIM,2040602022,0.5367,60389,112525
RN,PASSAGEM,2040602022,0.3357,965,2875
RN,PEDRA PRETA,2040602022,0.2889,704,2437
RN,PILÕES,2040602022,0.1197,318,2657
RN,RIACHO DE SANTANA,2040602022,0.1409,429,3045
RN,RIACHUELO,2040602022,0.2776,1441,5191
RN,RUY BARBOSA,2040602022,0.463,1391,3004
RN,SANTA CRUZ,2040602022,0.3099,6495,20957
RN,SANTA MARIA,2040602022,0.2808,1002,3568
RN,SÃO GONÇALO DO AMARANTE,2040602022,0.4065,24301,59774
RN,SÃO PEDRO,2040602022,0.2686,1283,4776
RN,SÃO TOMÉ,2040602022,0.4286,3085,7198
RN,SÃO VICENTE,2040602022,0.2848,1160,4073
RN,SERRINHA,2040602022,0.2901,1552,5350
RN,SÍTIO NOVO,2040602022,0.1867,704,3771
RN,TANGARÁ,2040602022,0.332,2999,9034
RN,VÁRZEA,2040602022,0.3465,1338,3861
RN,VERA CRUZ,2040602022,0.3168,2582,8150
RN,VIÇOSA,2040602022,0.195,273,1400
RO,ALTO PARAÍSO,2040602022,0.7626,6410,8405
RO,BURITIS,2040602022,0.7929,12479,15739
RO,NOVA UNIÃO,2040602022,0.5657,2285,4039
RO,PRESIDENTE MÉDICI,2040602022,0.7328,8252,11261
RR,ALTO ALEGRE,2040602022,0.7396,6030,8153
RR,BOA VISTA,2040602022,0.7947,144799,182211
RR,BONFIM,2040602022,0.6858,5199,7581
RR,IRACEMA,2040602022,0.7032,2980,4238
RS,ALTO ALEGRE,2040602022,0.5574,816,1464
RS,ALVORADA,2040602022,0.5035,51956,103187
RS,BARRACÃO,2040602022,0.5122,1745,3407
RS,BOM JESUS,2040602022,0.5168,3260,6308
RS,CACHOEIRINHA,2040602022,0.5856,46256,78990
RS,CAIÇARA,2040602022,0.5937,2098,3534
RS,CENTENÁRIO,2040602022,0.5282,1210,2291
RS,COLINAS,2040602022,0.6705,1233,1839
RS,COLORADO,2040602022,0.7066,1782,2522
RS,CRUZEIRO DO SUL,2040602022,0.6474,5021,7756
RS,HUMAITÁ,2040602022,0.5845,1999,3420
RS,INDEPENDÊNCIA,2040602022,0.6146,2796,4549
RS,JACUTINGA,2040602022,0.6406,1570,2451
RS,LAJEADO,2040602022,0.6628,31987,48258
RS,NOVA SANTA RITA,2040602022,0.5574,8152,14625
RS,PLANALTO,2040602022,0.5537,3448,6227
RS,SANTA MARIA,2040602022,0.5229,83340,159384
RS,SANTIAGO,2040602022,0.5501,16482,29962
RS,SÃO FRANCISCO DE PAULA,2040602022,0.5171,6289,12163
RS,SÃO GABRIEL,2040602022,0.4853,15954,32875
RS,SÃO MARTINHO,2040602022,0.6499,2649,4076
RS,SARANDI,2040602022,0.6437,8975,13943
RS,SOBRADINHO,2040602022,0.5729,4985,8702
RS,SOLEDADE,2040602022,0.5202,9030,17359
RS,TAPEJARA,2040602022,0.7743,11109,14348
RS,TAVARES,2040602022,0.504,1712,3397
RS,TRIUNFO,2040602022,0.596,10071,16897
RS,VERA CRUZ,2040602022,0.5664,9009,15905
SC,ANCHIETA,2040602022,0.5508,2282,4143
SC,ANTÔNIO CARLOS,2040602022,0.8228,5901,7172
SC,AURORA,2040602022,0.8038,3581,4455
SC,BARRA BONITA,2040602022,0.5513,812,1473
SC,BELMONTE,2040602022,0.6033,1165,1931
SC,BOM JESUS,2040602022,0.5258,1091,2075
SC,CAMPO ALEGRE,2040602022,0.7991,6355,7953
SC,CATANDUVAS,2040602022,0.6284,4293,6832
SC,ENTRE RIOS,2040602022,0.3074,731,2378
SC,GUARACIABA,2040602022,0.5978,4476,7487
SC,IRATI,2040602022,0.5,846,1692
SC,ITAPIRANGA,2040602022,0.7143,7199,10079
SC,JARDINÓPOLIS,2040602022,0.6064,852,1405
SC,MARAVILHA,2040602022,0.7044,11285,16020
SC,MASSARANDUBA,2040602022,0.8145,8899,10926
SC,MONTE CASTELO,2040602022,0.5872,3216,5477
SC,NOVA VENEZA,2040602022,0.7723,7889,10215
SC,NOVO HORIZONTE,2040602022,0.577,1221,2116
SC,OURO VERDE,2040602022,0.6355,1048,1649
SC,PALMEIRA,2040602022,0.628,1442,2296
SC,PARAÍSO,2040602022,0.5015,1486,2963
SC,PETROLÂNDIA,2040602022,0.7789,3579,4595
SC,PINHALZINHO,2040602022,0.6107,7754,12697
SC,PRAIA GRANDE,2040602022,0.59,3031,5137
SC,SALTINHO,2040602022,0.3899,1011,2593
SC,SANTA CECÍLIA,2040602022,0.5879,5514,9379
SC,SANTA HELENA,2040602022,0.5627,1068,1898
SC,SANTA ROSA DE LIMA,2040602022,0.6888,1149,1668
SC,SANTA TEREZINHA,2040602022,0.7003,3800,5426
SC,SÃO CARLOS,2040602022,0.6321,4360,6898
SC,SÃO DOMINGOS,2040602022,0.5717,3507,6134
SC,SÃO JOÃO BATISTA,2040602022,0.7875,14256,18102
SC,SÃO JOSÉ,2040602022,0.6317,93707,148341
SC,SÃO MARTINHO,2040602022,0.8097,2263,2795
SC,TANGARÁ,2040602022,0.7237,3944,5450
SC,TURVO,2040602022,0.8234,7034,8543
SC,VARGEM,2040602022,0.5208,1054,2024
SC,VARGEM BONITA,2040602022,0.5857,1941,3314
SE,AREIA BRANCA,2040602022,0.2831,3106,10972
SE,CAPELA,2040602022,0.2941,5492,18676
SE,FEIRA NOVA,2040602022,0.2234,1008,4513
SE,ITABAIANA,2040602022,0.3748,21361,56993
SE,PACATUBA,2040602022,0.1797,1438,8004
SE,PINHÃO,2040602022,0.2107,874,4149
SE,RIACHUELO,2040602022,0.2505,1527,6095
SE,SANTA ROSA DE LIMA,2040602022,0.2667,840,3150
SE,SÃO DOMINGOS,2040602022,0.3134,1885,6015
SE,SÃO FRANCISCO,2040602022,0.2503,680,2717
SP,ALTO ALEGRE,2040602022,0.676,1874,2772
SP,AMPARO,2040602022,0.678,28122,41476
SP,APARECIDA,2040602022,0.6289,13761,21880
SP,BARRA BONITA,2040602022,0.6572,14684,22342
SP,BOCAINA,2040602022,0.672,4517,6722
SP,BORBOREMA,2040602022,0.6803,5749,8451
SP,CAFELÂNDIA,2040602022,0.6251,5912,9457
SP,CEDRAL,2040602022,0.7158,4274,5971
SP,ELDORADO,2040602022,0.5416,4352,8035
SP,ESTRELA DO NORTE,2040602022,0.4483,863,1925
SP,GUAÍRA,2040602022,0.6269,13046,20811
SP,GUARACI,2040602022,0.491,3042,6196
SP,ITAPEVA,2040602022,0.631,32952,52225
SP,ITAPORANGA,2040602022,0.5822,4860,8347
SP,JABORANDI,2040602022,0.5177,2102,4060
SP,JARDINÓPOLIS,2040602022,0.6539,14171,21672
SP,MONTE CASTELO,2040602022,0.5192,1420,2735
SP,NOVO HORIZONTE,2040602022,0.6924,15093,21798
SP,OURO VERDE,2040602022,0.5053,2325,4601
SP,PALESTINA,2040602022,0.6069,4087,6734
SP,PALMITAL,2040602022,0.6512,8260,12685
SP,PARAÍSO,2040602022,0.6386,2285,3578
SP,PINHALZINHO,2040602022,0.6668,5480,8218
SP,PITANGUEIRAS,2040602022,0.5441,10554,19396
SP,PLANALTO,2040602022,0.5218,1606,3078
SP,PRAIA GRANDE,2040602022,0.5828,105028,180208
SP,PRESIDENTE BERNARDES,2040602022,0.6052,4928,8143
SP,RIO CLARO,2040602022,0.6763,78720,116390
SP,SALTINHO,2040602022,0.8121,4530,5578
SP,SANTA ISABEL,2040602022,0.6148,19461,31656
SP,SANTA LÚCIA,2040602022,0.4227,2103,4975
SP,SANTO ANDRÉ,2040602022,0.5213,225767,433097
SP,SÃO CARLOS,2040602022,0.5198,73647,141689
SP,SÃO FRANCISCO,2040602022,0.5556,1039,1870
SP,SÃO PEDRO,2040602022,0.7156,14197,19838
SP,SÃO SEBASTIÃO,2040602022,0.5081,24723,48657
SP,SÃO SIMÃO,2040602022,0.5958,5089,8541
SP,SÃO VICENTE,2040602022,0.5409,102155,188857
SP,SERTÃOZINHO,2040602022,0.5674,40647,71637
SP,TABATINGA,2040602022,0.576,4902,8511
SP,TAPIRAÍ,2040602022,0.5961,2645,4437
SP,TEODORO SAMPAIO,2040602022,0.4645,6018,12955
SP,TERRA ROXA,2040602022,0.5858,2837,4843
SP,TURMALINA,2040602022,0.4596,625,1360
SP,VARGEM,2040602022,0.6422,3039,4732
SP,VERA CRUZ,2040602022,0.6219,3779,6077
TO,ALVORADA,2040602022,0.5488,2965,5403
TO,ARAGUANÃ,2040602022,0.4976,1328,2669
TO,BOM JESUS DO TOCANTINS,2040602022,0.4494,1137,2530
TO,CACHOEIRINHA,2040602022,0.3514,460,1309
TO,CENTENÁRIO,2040602022,0.3093,429,1387
TO,ESPERANTINA,2040602022,0.2813,1257,4469
TO,FÁTIMA,2040602022,0.5208,1288,2473
TO,FILADÉLFIA,2040602022,0.3732,1732,4641
TO,IPUEIRAS,2040602022,0.2709,353,1303
TO,LAJEADO,2040602022,0.4808,1165,2423
TO,NATIVIDADE,2040602022,0.3891,1865,4793
TO,NAZARÉ,2040602022,0.2689,827,3075
TO,NOVA OLINDA,2040602022,0.4577,2832,6188
TO,PALMAS,2040602022,0.6032,95715,158676
TO,PAU D'ARCO,2040602022,0.4757,1186,2493
TO,PRESIDENTE KENNEDY,2040602022,0.4497,926,2059
TO,RIACHINHO,2040602022,0.3763,1010,2684